{
    "name": "PlayStromProjectDefinition",
    "rootNamespace": "",
    "references": [
        "GUID:ae9d3240ec90545d896a239ccd5aa1d1",
        "GUID:be2e89a4ab1af054293ffe96b42f11c8",
        "GUID:0d8beb7f090555447a6cf5ce9e54dbb4",
        "GUID:b214f35626a0f4ef1924e1b060a284b1",
        "GUID:b2d50ca95e514459aaf6771b6f1426c6"
    ],
    "includePlatforms": [
        "Editor"
    ],
    "excludePlatforms": [],
    "allowUnsafeCode": false,
    "overrideReferences": false,
    "precompiledReferences": [],
    "autoReferenced": true,
    "defineConstraints": [],
    "versionDefines": [],
    "noEngineReferences": false
}