{
    "name": "Playstrom.Core.Templates",
    "rootNamespace": "",
    "references": [
        "GUID:0d8beb7f090555447a6cf5ce9e54dbb4",
        "GUID:ae9d3240ec90545d896a239ccd5aa1d1",
        "GUID:b214f35626a0f4ef1924e1b060a284b1"
    ],
    "includePlatforms": [],
    "excludePlatforms": [],
    "allowUnsafeCode": false,
    "overrideReferences": false,
    "precompiledReferences": [],
    "autoReferenced": true,
    "defineConstraints": [],
    "versionDefines": [],
    "noEngineReferences": false
}