%YAML 1.1
%TAG !u! tag:unity3d.com,2011:
--- !u!114 &11400000
MonoBehaviour:
  m_ObjectHideFlags: 0
  m_CorrespondingSourceObject: {fileID: 0}
  m_PrefabInstance: {fileID: 0}
  m_PrefabAsset: {fileID: 0}
  m_GameObject: {fileID: 0}
  m_Enabled: 1
  m_EditorHideFlags: 0
  m_Script: {fileID: 11500000, guid: c7428aba05754d68aabc600d64047b17, type: 3}
  m_Name: RewardItemConfigSpecial
  m_EditorClassIdentifier: 
  rewardItemBase: {fileID: 11400000, guid: b3ca788f37d524a588e627b7f6e7b9e9, type: 2}
  weightToDrop: 2
