%YAML 1.1
%TAG !u! tag:unity3d.com,2011:
--- !u!181963792 &2655988077585873504
Preset:
  m_ObjectHideFlags: 0
  m_CorrespondingSourceObject: {fileID: 0}
  m_PrefabInstance: {fileID: 0}
  m_PrefabAsset: {fileID: 0}
  m_Name: PresetManager
  m_TargetType:
    m_NativeTypeID: 1386491679
    m_ManagedTypePPtr: {fileID: 0}
    m_ManagedTypeFallback: 
  m_Properties:
  - target: {fileID: 0}
    propertyPath: m_DefaultPresets.Array.size
    value: 6
    objectReference: {fileID: 0}
  - target: {fileID: 0}
    propertyPath: m_DefaultPresets.Array.data[0].first.m_NativeTypeID
    value: 1020
    objectReference: {fileID: 0}
  - target: {fileID: 0}
    propertyPath: m_DefaultPresets.Array.data[0].first.m_ManagedTypePPtr
    value: 
    objectReference: {fileID: 0}
  - target: {fileID: 0}
    propertyPath: m_DefaultPresets.Array.data[0].first.m_ManagedTypeFallback
    value: 
    objectReference: {fileID: 0}
  - target: {fileID: 0}
    propertyPath: m_DefaultPresets.Array.data[0].second.Array.size
    value: 4
    objectReference: {fileID: 0}
  - target: {fileID: 0}
    propertyPath: m_DefaultPresets.Array.data[0].second.Array.data[0].m_Preset
    value: 
    objectReference: {fileID: 2655988077585873504, guid: 8bb355e5f833a4c6d84cdcc7467f7710,
      type: 2}
  - target: {fileID: 0}
    propertyPath: m_DefaultPresets.Array.data[0].second.Array.data[0].m_Filter
    value: glob:"Sounds/Backgrounds/**.wav"
    objectReference: {fileID: 0}
  - target: {fileID: 0}
    propertyPath: m_DefaultPresets.Array.data[0].second.Array.data[0].m_Disabled
    value: 0
    objectReference: {fileID: 0}
  - target: {fileID: 0}
    propertyPath: m_DefaultPresets.Array.data[0].second.Array.data[1].m_Preset
    value: 
    objectReference: {fileID: 2655988077585873504, guid: 8bb355e5f833a4c6d84cdcc7467f7710,
      type: 2}
  - target: {fileID: 0}
    propertyPath: m_DefaultPresets.Array.data[0].second.Array.data[1].m_Filter
    value: glob:"Sounds/Backgrounds/**.ogg"
    objectReference: {fileID: 0}
  - target: {fileID: 0}
    propertyPath: m_DefaultPresets.Array.data[0].second.Array.data[1].m_Disabled
    value: 0
    objectReference: {fileID: 0}
  - target: {fileID: 0}
    propertyPath: m_DefaultPresets.Array.data[0].second.Array.data[2].m_Preset
    value: 
    objectReference: {fileID: 2655988077585873504, guid: 2dbd0ce0dbcc440d68c7968a02bbb369,
      type: 2}
  - target: {fileID: 0}
    propertyPath: m_DefaultPresets.Array.data[0].second.Array.data[2].m_Filter
    value: glob:"Sounds/SFX/**.wav"
    objectReference: {fileID: 0}
  - target: {fileID: 0}
    propertyPath: m_DefaultPresets.Array.data[0].second.Array.data[2].m_Disabled
    value: 0
    objectReference: {fileID: 0}
  - target: {fileID: 0}
    propertyPath: m_DefaultPresets.Array.data[0].second.Array.data[3].m_Preset
    value: 
    objectReference: {fileID: 2655988077585873504, guid: 2dbd0ce0dbcc440d68c7968a02bbb369,
      type: 2}
  - target: {fileID: 0}
    propertyPath: m_DefaultPresets.Array.data[0].second.Array.data[3].m_Filter
    value: glob:"Sounds/SFX/**.ogg"
    objectReference: {fileID: 0}
  - target: {fileID: 0}
    propertyPath: m_DefaultPresets.Array.data[0].second.Array.data[3].m_Disabled
    value: 0
    objectReference: {fileID: 0}
  - target: {fileID: 0}
    propertyPath: m_DefaultPresets.Array.data[1].first.m_NativeTypeID
    value: 1006
    objectReference: {fileID: 0}
  - target: {fileID: 0}
    propertyPath: m_DefaultPresets.Array.data[1].first.m_ManagedTypePPtr
    value: 
    objectReference: {fileID: 0}
  - target: {fileID: 0}
    propertyPath: m_DefaultPresets.Array.data[1].first.m_ManagedTypeFallback
    value: 
    objectReference: {fileID: 0}
  - target: {fileID: 0}
    propertyPath: m_DefaultPresets.Array.data[1].second.Array.size
    value: 2
    objectReference: {fileID: 0}
  - target: {fileID: 0}
    propertyPath: m_DefaultPresets.Array.data[1].second.Array.data[0].m_Preset
    value: 
    objectReference: {fileID: 2655988077585873504, guid: f423e1e07fde14fe4b075901c2cb50d9,
      type: 2}
  - target: {fileID: 0}
    propertyPath: m_DefaultPresets.Array.data[1].second.Array.data[0].m_Filter
    value: glob:"Textures/**.png"
    objectReference: {fileID: 0}
  - target: {fileID: 0}
    propertyPath: m_DefaultPresets.Array.data[1].second.Array.data[0].m_Disabled
    value: 0
    objectReference: {fileID: 0}
  - target: {fileID: 0}
    propertyPath: m_DefaultPresets.Array.data[1].second.Array.data[1].m_Preset
    value: 
    objectReference: {fileID: 2655988077585873504, guid: ae6bd0e14a2fe4de1a2394b9529599df,
      type: 2}
  - target: {fileID: 0}
    propertyPath: m_DefaultPresets.Array.data[1].second.Array.data[1].m_Filter
    value: glob:"Textures/Sprites/**.png"
    objectReference: {fileID: 0}
  - target: {fileID: 0}
    propertyPath: m_DefaultPresets.Array.data[1].second.Array.data[1].m_Disabled
    value: 0
    objectReference: {fileID: 0}
  - target: {fileID: 0}
    propertyPath: m_DefaultPresets.Array.data[2].first.m_NativeTypeID
    value: 137
    objectReference: {fileID: 0}
  - target: {fileID: 0}
    propertyPath: m_DefaultPresets.Array.data[2].first.m_ManagedTypePPtr
    value: 
    objectReference: {fileID: 0}
  - target: {fileID: 0}
    propertyPath: m_DefaultPresets.Array.data[2].first.m_ManagedTypeFallback
    value: 
    objectReference: {fileID: 0}
  - target: {fileID: 0}
    propertyPath: m_DefaultPresets.Array.data[2].second.Array.size
    value: 1
    objectReference: {fileID: 0}
  - target: {fileID: 0}
    propertyPath: m_DefaultPresets.Array.data[2].second.Array.data[0].m_Preset
    value: 
    objectReference: {fileID: 2655988077585873504, guid: 8ef0c5bb4da74492a8f934f7090f7800,
      type: 2}
  - target: {fileID: 0}
    propertyPath: m_DefaultPresets.Array.data[2].second.Array.data[0].m_Filter
    value: 
    objectReference: {fileID: 0}
  - target: {fileID: 0}
    propertyPath: m_DefaultPresets.Array.data[2].second.Array.data[0].m_Disabled
    value: 0
    objectReference: {fileID: 0}
  - target: {fileID: 0}
    propertyPath: m_DefaultPresets.Array.data[3].first.m_NativeTypeID
    value: 114
    objectReference: {fileID: 0}
  - target: {fileID: 0}
    propertyPath: m_DefaultPresets.Array.data[3].first.m_ManagedTypePPtr
    value: 
    objectReference: {fileID: 11500000, guid: 0cd44c1031e13a943bb63640046fad76, type: 3}
  - target: {fileID: 0}
    propertyPath: m_DefaultPresets.Array.data[3].first.m_ManagedTypeFallback
    value: 
    objectReference: {fileID: 0}
  - target: {fileID: 0}
    propertyPath: m_DefaultPresets.Array.data[3].second.Array.size
    value: 1
    objectReference: {fileID: 0}
  - target: {fileID: 0}
    propertyPath: m_DefaultPresets.Array.data[3].second.Array.data[0].m_Preset
    value: 
    objectReference: {fileID: 2655988077585873504, guid: 3390153480d474345a9da3450982d800,
      type: 2}
  - target: {fileID: 0}
    propertyPath: m_DefaultPresets.Array.data[3].second.Array.data[0].m_Filter
    value: 
    objectReference: {fileID: 0}
  - target: {fileID: 0}
    propertyPath: m_DefaultPresets.Array.data[3].second.Array.data[0].m_Disabled
    value: 0
    objectReference: {fileID: 0}
  - target: {fileID: 0}
    propertyPath: m_DefaultPresets.Array.data[4].first.m_NativeTypeID
    value: 1041
    objectReference: {fileID: 0}
  - target: {fileID: 0}
    propertyPath: m_DefaultPresets.Array.data[4].first.m_ManagedTypePPtr
    value: 
    objectReference: {fileID: 0}
  - target: {fileID: 0}
    propertyPath: m_DefaultPresets.Array.data[4].first.m_ManagedTypeFallback
    value: 
    objectReference: {fileID: 0}
  - target: {fileID: 0}
    propertyPath: m_DefaultPresets.Array.data[4].second.Array.size
    value: 1
    objectReference: {fileID: 0}
  - target: {fileID: 0}
    propertyPath: m_DefaultPresets.Array.data[4].second.Array.data[0].m_Preset
    value: 
    objectReference: {fileID: 2655988077585873504, guid: 09743cea874154e65b11a15ee3b6af3f,
      type: 2}
  - target: {fileID: 0}
    propertyPath: m_DefaultPresets.Array.data[4].second.Array.data[0].m_Filter
    value: glob:"Fbx/**.fbx"
    objectReference: {fileID: 0}
  - target: {fileID: 0}
    propertyPath: m_DefaultPresets.Array.data[4].second.Array.data[0].m_Disabled
    value: 0
    objectReference: {fileID: 0}
  - target: {fileID: 0}
    propertyPath: m_DefaultPresets.Array.data[5].first.m_NativeTypeID
    value: 23
    objectReference: {fileID: 0}
  - target: {fileID: 0}
    propertyPath: m_DefaultPresets.Array.data[5].first.m_ManagedTypePPtr
    value: 
    objectReference: {fileID: 0}
  - target: {fileID: 0}
    propertyPath: m_DefaultPresets.Array.data[5].first.m_ManagedTypeFallback
    value: 
    objectReference: {fileID: 0}
  - target: {fileID: 0}
    propertyPath: m_DefaultPresets.Array.data[5].second.Array.size
    value: 1
    objectReference: {fileID: 0}
  - target: {fileID: 0}
    propertyPath: m_DefaultPresets.Array.data[5].second.Array.data[0].m_Preset
    value: 
    objectReference: {fileID: 2655988077585873504, guid: 95e32e1a29063468899a4a664adce842,
      type: 2}
  - target: {fileID: 0}
    propertyPath: m_DefaultPresets.Array.data[5].second.Array.data[0].m_Filter
    value: 
    objectReference: {fileID: 0}
  - target: {fileID: 0}
    propertyPath: m_DefaultPresets.Array.data[5].second.Array.data[0].m_Disabled
    value: 0
    objectReference: {fileID: 0}
  m_ExcludedProperties: []
